<svg width="70" height="70" viewBox="0 0 70 70" fill="none" xmlns="http://www.w3.org/2000/svg">
<g filter="url(#filter0_d)">
<rect x="4" y="4" width="60" height="60" rx="5" fill="white"/>
</g>
<path d="M17.4619 25.7344C13.9932 25.7188 11.6885 28.0937 11.6885 31.25C11.6885 34.2812 13.8447 36.4609 16.6494 36.4609C18.376 36.4609 19.876 35.625 20.6494 34.25H20.7588C20.751 37.6719 19.5088 39.7109 17.2979 39.7109C15.915 39.7109 14.9854 38.9141 14.6963 37.6406H11.8447C12.1729 40.2891 14.2666 42.2187 17.2979 42.2187C21.1338 42.2187 23.5635 39.0156 23.5713 33.5078C23.5635 27.6406 20.5322 25.7578 17.4619 25.7344ZM17.4697 28.0781C19.1807 28.0781 20.4385 29.5 20.4385 31.1719C20.4385 32.8359 19.126 34.2578 17.4385 34.2578C15.7354 34.2578 14.501 32.9141 14.501 31.1875C14.501 29.4453 15.7744 28.0781 17.4697 28.0781ZM31.8604 42.2187C35.3213 42.2187 37.7979 40.3125 37.8057 37.7109C37.7979 35.7109 36.3213 34.0391 34.4619 33.7266V33.6172C36.0791 33.2578 37.2041 31.8047 37.2119 30.0703C37.2041 27.6094 34.9385 25.7812 31.8604 25.7812C28.7588 25.7812 26.4932 27.6016 26.501 30.0703C26.4932 31.8047 27.6025 33.2578 29.251 33.6172V33.7266C27.3604 34.0391 25.8994 35.7109 25.9072 37.7109C25.8994 40.3125 28.3682 42.2187 31.8604 42.2187ZM31.8604 39.9844C30.0479 39.9844 28.876 38.9844 28.8916 37.5078C28.876 35.9766 30.1338 34.8906 31.8604 34.8906C33.5635 34.8906 34.8135 35.9844 34.8291 37.5078C34.8135 38.9844 33.6494 39.9844 31.8604 39.9844ZM31.8604 32.6953C30.376 32.6953 29.3135 31.7344 29.3291 30.3437C29.3135 28.9687 30.3447 28.0469 31.8604 28.0469C33.3525 28.0469 34.376 28.9687 34.3916 30.3437C34.376 31.7422 33.3213 32.6953 31.8604 32.6953ZM48.9287 39C48.9365 40.8594 50.1162 42.4453 52.3115 42.4453C54.499 42.4453 55.7021 40.8594 55.6943 39V38.1562C55.7021 36.2812 54.5303 34.7109 52.3115 34.7109C50.1475 34.7109 48.9365 36.2969 48.9287 38.1562V39ZM40.7959 29.8438C40.8037 31.7031 41.9834 33.2734 44.1865 33.2734C46.3662 33.2734 47.5693 31.7187 47.5615 29.8438V29C47.5693 27.125 46.3975 25.5547 44.1865 25.5547C42.0303 25.5547 40.8037 27.125 40.7959 29V29.8438ZM41.499 42H43.46L54.46 26H52.499L41.499 42ZM50.9678 38.1562C50.9756 37.3281 51.3271 36.4922 52.3115 36.4922C53.3428 36.4922 53.6475 37.3281 53.6396 38.1562V39C53.6475 39.8281 53.3115 40.6484 52.3115 40.6484C51.3115 40.6484 50.9756 39.8203 50.9678 39V38.1562ZM42.8506 29C42.8584 28.1797 43.1943 27.3359 44.1865 27.3359C45.2178 27.3359 45.5146 28.1719 45.5068 29V29.8438C45.5146 30.6719 45.1865 31.4922 44.1865 31.4922C43.1865 31.4922 42.8584 30.6719 42.8506 29.8438V29Z" fill="#3AB86F"/>
<defs>
<filter id="filter0_d" x="0" y="0" width="70" height="70" filterUnits="userSpaceOnUse" color-interpolation-filters="sRGB">
<feFlood flood-opacity="0" result="BackgroundImageFix"/>
<feColorMatrix in="SourceAlpha" type="matrix" values="0 0 0 0 0 0 0 0 0 0 0 0 0 0 0 0 0 0 127 0"/>
<feOffset dx="1" dy="1"/>
<feGaussianBlur stdDeviation="2.5"/>
<feColorMatrix type="matrix" values="0 0 0 0 0.4875 0 0 0 0 0.4875 0 0 0 0 0.4875 0 0 0 0.25 0"/>
<feBlend mode="normal" in2="BackgroundImageFix" result="effect1_dropShadow"/>
<feBlend mode="normal" in="SourceGraphic" in2="effect1_dropShadow" result="shape"/>
</filter>
</defs>
</svg>
