<svg width="250" height="250" viewBox="0 0 250 250" fill="none" xmlns="http://www.w3.org/2000/svg">
<circle cx="125" cy="125" r="99.1379" fill="#3DCC79"/>
<path d="M234.267 125C235.815 125 237.073 126.254 237.034 127.801C236.592 145.492 231.966 162.84 223.518 178.42C214.624 194.821 201.777 208.742 186.141 218.921C170.505 229.1 152.575 235.214 133.978 236.708C116.313 238.128 98.5759 235.337 82.2201 228.582C80.7899 227.991 80.1516 226.333 80.7778 224.918C81.4041 223.503 83.0576 222.868 84.4886 223.456C99.9907 229.835 116.794 232.468 133.529 231.123C151.197 229.703 168.23 223.895 183.084 214.225C197.938 204.555 210.143 191.33 218.592 175.749C226.595 160.989 230.988 144.559 231.429 127.801C231.469 126.254 232.72 125 234.267 125Z" fill="#3DCC79"/>
<path d="M15.7326 125C14.1853 125 12.9273 123.746 12.9659 122.199C13.4083 104.508 18.0344 87.1596 26.4822 71.5801C35.3756 55.1789 48.223 41.2576 63.8589 31.0789C79.4949 20.9002 97.4247 14.7862 116.022 13.2916C133.687 11.8718 151.424 14.6628 167.78 21.4179C169.21 22.0086 169.848 23.6668 169.222 25.0818C168.596 26.4967 166.942 27.1325 165.511 26.5437C150.009 20.165 133.206 17.532 116.471 18.877C98.8035 20.2969 81.7702 26.1052 66.916 35.775C52.0618 45.4447 39.8568 58.67 31.4081 74.2511C23.405 89.0105 19.0123 105.441 18.5712 122.199C18.5305 123.746 17.28 125 15.7326 125Z" fill="#3DCC79"/>
<path d="M125 3.12496C125 1.39907 126.4 -0.00411014 128.125 0.0390264C147.856 0.532388 167.207 5.69231 184.584 15.1149C202.878 25.0344 218.405 39.3642 229.758 56.8043C241.112 74.2444 247.931 94.243 249.598 114.986C251.182 134.69 248.069 154.473 240.534 172.716C239.875 174.311 238.026 175.023 236.448 174.325C234.869 173.626 234.16 171.782 234.817 170.186C241.932 152.895 244.869 134.153 243.368 115.487C241.785 95.7809 235.306 76.7822 224.521 60.2141C213.735 43.646 198.984 30.0327 181.605 20.6091C165.143 11.6826 146.816 6.78303 128.125 6.29107C126.4 6.24568 125 4.85086 125 3.12496Z" fill="#3DCC79"/>
<path d="M125 246.875C125 248.601 123.6 250.004 121.875 249.961C102.143 249.468 82.793 244.308 65.4159 234.885C47.1223 224.966 31.5947 210.636 20.2415 193.196C8.88833 175.756 2.0689 155.757 0.401789 135.014C-1.1818 115.31 1.93121 95.5269 9.46577 77.2838C10.1246 75.6886 11.9742 74.9767 13.5524 75.6752C15.1306 76.3737 15.8397 78.218 15.1829 79.814C8.06826 97.1049 5.13146 115.847 6.63169 134.513C8.21545 154.219 14.6939 173.218 25.4794 189.786C36.2649 206.354 51.0162 219.967 68.3951 229.391C84.8575 238.317 103.184 243.217 121.875 243.709C123.6 243.754 125 245.149 125 246.875Z" fill="#3DCC79"/>
<g filter="url(#filter0_dd)">
<path d="M150.984 107.965C155.215 105.142 157.758 100.392 157.758 95.3055V71.1201H93.103V95.3055C93.103 100.392 95.6461 105.142 99.8767 107.965L119.961 122.713C120.689 123.247 121.12 124.096 121.12 124.999C121.12 125.902 120.689 126.752 119.963 127.286L99.8789 142.034C95.6461 144.857 93.103 149.607 93.103 154.693V178.879H157.758V154.693C157.758 149.607 155.215 144.857 150.984 142.034L130.9 127.286C130.172 126.752 129.741 125.902 129.741 124.999C129.741 124.096 130.172 123.247 130.898 122.713L150.984 107.965Z" fill="#E6E6E6"/>
<path d="M150.984 107.965C155.215 105.142 157.758 100.392 157.758 95.3055V71.1201H93.103V95.3055C93.103 100.392 95.6461 105.142 99.8767 107.965L119.961 122.713C120.689 123.247 121.12 124.096 121.12 124.999C121.12 125.902 120.689 126.752 119.963 127.286L99.8789 142.034C95.6461 144.857 93.103 149.607 93.103 154.693V178.879H157.758V154.693C157.758 149.607 155.215 144.857 150.984 142.034L130.9 127.286C130.172 126.752 129.741 125.902 129.741 124.999C129.741 124.096 130.172 123.247 130.898 122.713L150.984 107.965Z" fill="#304456"/>
<path d="M168.535 178.88H82.3276V187.501H168.535V178.88Z" fill="#9E6C53"/>
<path d="M168.535 178.88H82.3276V187.501H168.535V178.88Z" fill="#6DFFAA"/>
<path d="M168.535 62.5H82.3276V71.1207H168.535V62.5Z" fill="#9E6C53"/>
<path d="M168.535 62.5H82.3276V71.1207H168.535V62.5Z" fill="#6DFFAA"/>
<path d="M177.155 185.345H168.535H73.7069C72.5173 185.345 71.5518 186.308 71.5518 187.5C71.5518 188.692 72.5173 189.655 73.7069 189.655H168.535H177.155C178.345 189.655 179.31 188.692 179.31 187.5C179.31 186.308 178.345 185.345 177.155 185.345Z" fill="#8A5336"/>
<path d="M177.155 185.345H168.535H73.7069C72.5173 185.345 71.5518 186.308 71.5518 187.5C71.5518 188.692 72.5173 189.655 73.7069 189.655H168.535H177.155C178.345 189.655 179.31 188.692 179.31 187.5C179.31 186.308 178.345 185.345 177.155 185.345Z" fill="#3DCC79"/>
<path d="M73.7074 64.6551H168.535H177.156C178.345 64.6551 179.311 63.6917 179.311 62.4999C179.311 61.3081 178.345 60.3447 177.156 60.3447H168.535H73.7074C72.5178 60.3447 71.5522 61.3081 71.5522 62.4999C71.5522 63.6917 72.5178 64.6551 73.7074 64.6551Z" fill="#8A5336"/>
<path d="M73.7074 64.6551H168.535H177.156C178.345 64.6551 179.311 63.6917 179.311 62.4999C179.311 61.3081 178.345 60.3447 177.156 60.3447H168.535H73.7074C72.5178 60.3447 71.5522 61.3081 71.5522 62.4999C71.5522 63.6917 72.5178 64.6551 73.7074 64.6551Z" fill="#3DCC79"/>
<path d="M147.397 102.586C149.837 100.959 151.293 98.237 151.293 95.3081C151.293 92.4935 149.378 90.0388 146.647 89.3556L114.205 81.2456C106.772 79.3857 99.5693 85.0086 99.5693 92.6724V95.3081C99.5693 98.237 101.026 100.959 103.466 102.586L123.276 117.125V151.343C123.276 159.166 115.164 164.351 108.065 161.065C104.242 159.295 99.6124 161.914 99.5715 166.127C99.5715 166.157 99.5715 166.185 99.5715 166.215V178.879H151.296V154.692C151.296 154.662 151.296 154.634 151.296 154.603C151.255 150.442 147.225 147.444 143.125 148.157L138.709 148.927C132.901 149.937 127.587 145.468 127.587 139.575V117.125L147.397 102.586Z" fill="#EBBA16"/>
</g>
<defs>
<filter id="filter0_dd" x="56.5518" y="49.3447" width="137.759" height="159.31" filterUnits="userSpaceOnUse" color-interpolation-filters="sRGB">
<feFlood flood-opacity="0" result="BackgroundImageFix"/>
<feColorMatrix in="SourceAlpha" type="matrix" values="0 0 0 0 0 0 0 0 0 0 0 0 0 0 0 0 0 0 127 0"/>
<feOffset dy="4"/>
<feGaussianBlur stdDeviation="7.5"/>
<feColorMatrix type="matrix" values="0 0 0 0 0.00833333 0 0 0 0 0.00833333 0 0 0 0 0.00833333 0 0 0 0.25 0"/>
<feBlend mode="normal" in2="BackgroundImageFix" result="effect1_dropShadow"/>
<feColorMatrix in="SourceAlpha" type="matrix" values="0 0 0 0 0 0 0 0 0 0 0 0 0 0 0 0 0 0 127 0"/>
<feOffset dy="4"/>
<feGaussianBlur stdDeviation="7.5"/>
<feColorMatrix type="matrix" values="0 0 0 0 0.00833333 0 0 0 0 0.00833333 0 0 0 0 0.00833333 0 0 0 0.25 0"/>
<feBlend mode="normal" in2="effect1_dropShadow" result="effect2_dropShadow"/>
<feBlend mode="normal" in="SourceGraphic" in2="effect2_dropShadow" result="shape"/>
</filter>
</defs>
</svg>
